{
  "runtimeOptions": {
    "tfm": "net7.0",
    "framework": {
      "name": "Microsoft.NETCore.App",
      "version": "7.0.0"
    },
    "configProperties": {
      "System.GC.Server": true,
      "System.Reflection.NullabilityInfoContext.IsSupported": true
    }
  }
}